b827eb1958ea
b827eb0aa031
b827eb3e923f
b827eb5b3a47
b827eb19eb64
b827ebf4c035
b827eb658d29
b827ebd40add
b827ebd3c42f
b827ebdf8039
b827ebc93d8d
b827eb9d001a
b827eb78be42
b827eb155ae2
b827eb9eb223
b827ebb8ec53
b827ebc6f4ae
b827ebd77d1c